FL123,JFK,LAX,350,6,Airbus A320
FL456,LAX,ORD,280,4,Airbus A320
FL789,ORD,ATL,200,2,Airbus A320
FL101,DCA,SFO,400,5.5,Gulfstream G650
FL202,SFO,MIA,500,6.5,Gulfstream G650
FL303,BOS,SEA,380,5,Boeing 747-8F
FL404,SEA,DFW,360,4.5,Boeing 747-8F
FL505,DFW,JFK,330,3.5,Boeing 747-8F
FL606,DFW,DCA,200,2.5,Boeing 747-8F
FL607,DCA,SFO,220,4,Airbus A320
FL608,SFO,MIA,300,3,Airbus A320
FL609,DFW,LAX,250,5,Airbus A320
FL610,JFK,ATL,3000,19,Airbus A320